<?xml version="1.0" standalone="no"?>
<!DOCTYPE svg PUBLIC "-//W3C//DTD SVG 20010904//EN"
 "http://www.w3.org/TR/2001/REC-SVG-20010904/DTD/svg10.dtd">
<svg version="1.0" xmlns="http://www.w3.org/2000/svg"
 width="1792.000000pt" height="1792.000000pt" viewBox="0 0 1792.000000 1792.000000"
 preserveAspectRatio="xMidYMid meet">
<metadata>
Created by potrace 1.14, written by Peter Selinger 2001-2017
</metadata>
<g transform="translate(0.000000,1792.000000) scale(0.100000,-0.100000)"
fill="#000000" stroke="none">
<path d="M8169 13167 c-21 -12 -61 -39 -90 -59 -30 -21 -60 -38 -67 -38 -7 0
-31 -9 -53 -21 -23 -11 -42 -19 -44 -17 -1 2 -10 18 -19 36 -24 47 -70 72
-134 72 -29 0 -66 -7 -81 -15 -33 -16 -77 -65 -86 -95 -5 -14 -15 -20 -38 -20
-18 0 -47 -9 -65 -20 -21 -13 -50 -20 -82 -20 -55 0 -142 -29 -188 -63 -17
-12 -61 -46 -98 -75 l-68 -53 -16 32 c-21 39 -54 58 -101 59 -28 0 -41 6 -53
25 -36 55 -110 80 -159 53 -12 -6 -51 -11 -87 -10 -79 3 -117 -17 -151 -77
-21 -37 -26 -41 -63 -41 -125 -1 -200 -112 -147 -218 12 -24 17 -50 13 -74 -7
-57 4 -83 58 -143 28 -30 50 -59 50 -63 0 -4 -18 -20 -40 -35 -56 -40 -83 -95
-78 -163 2 -45 1 -53 -12 -48 -8 4 -37 10 -65 14 -27 4 -67 14 -87 24 -21 9
-61 16 -91 16 -46 0 -57 4 -81 29 -58 60 -176 91 -268 71 -49 -11 -58 -10 -96
9 -57 29 -111 27 -180 -8 -71 -36 -93 -60 -129 -136 -22 -49 -28 -78 -31 -157
-4 -99 -14 -118 -27 -51 -10 55 -32 91 -68 113 -36 22 -93 26 -132 8 -21 -10
-29 -9 -42 5 -18 18 -22 99 -8 170 19 98 -69 155 -173 111 -20 -8 -71 -23
-112 -33 -90 -22 -164 -58 -203 -99 -26 -27 -32 -29 -65 -20 -19 5 -90 8 -156
6 -117 -4 -124 -6 -207 -45 -96 -45 -158 -96 -195 -158 -23 -41 -27 -43 -85
-49 -33 -4 -66 -9 -72 -11 -7 -3 -21 15 -32 38 -15 32 -32 48 -70 67 -45 22
-62 25 -165 25 -124 0 -145 -6 -220 -65 -19 -15 -51 -31 -70 -34 -19 -4 -48
-12 -63 -18 -27 -11 -57 -53 -57 -82 0 -8 -14 -17 -33 -21 -17 -4 -54 -18 -80
-32 l-48 -24 -28 30 c-34 36 -67 45 -134 37 -117 -14 -178 -46 -215 -114 -20
-36 -28 -42 -55 -42 -71 0 -127 -63 -127 -142 l0 -44 -70 -12 c-39 -7 -93 -12
-121 -12 -58 0 -121 -28 -145 -65 -11 -17 -25 -25 -46 -25 -48 0 -84 -26 -129
-95 l-43 -65 -816 0 c-779 0 -817 -1 -857 -19 -64 -29 -73 -57 -73 -211 0
-154 9 -179 70 -204 37 -15 746 -16 8886 -16 l8845 0 40 21 c61 31 79 77 79
214 0 128 -13 161 -79 195 -40 20 -53 20 -1029 20 l-988 0 -55 30 c-31 16 -86
39 -124 51 -61 19 -82 20 -186 14 -127 -8 -169 -23 -191 -70 l-11 -25 -379 0
-379 0 7 93 c6 82 4 98 -14 133 -11 22 -28 46 -36 53 -9 8 -16 27 -16 43 0 42
-36 107 -86 154 -31 28 -44 48 -44 68 0 39 -34 100 -65 114 -73 34 -213 -7
-293 -85 -29 -28 -68 -50 -129 -74 l-88 -33 -229 -4 c-125 -2 -239 -1 -252 2
-37 10 -101 73 -114 112 -15 44 -7 66 35 99 74 56 83 123 31 231 -35 73 -60
94 -116 94 -37 0 -129 -24 -166 -43 -18 -9 -36 -11 -49 -6 -11 4 -46 8 -78 8
-61 1 -110 -17 -120 -44 -4 -9 -19 -15 -37 -15 -56 0 -109 -36 -134 -90 -17
-36 -37 -59 -72 -82 -27 -18 -57 -49 -68 -68 l-18 -35 -182 0 c-175 0 -183 -1
-238 -27 -68 -32 -98 -73 -98 -136 0 -54 -33 -122 -59 -122 -13 0 -31 21 -55
64 -20 35 -40 66 -45 68 -5 2 -22 33 -39 70 -33 73 -74 108 -124 108 -25 0
-28 3 -28 35 0 44 -23 92 -49 100 -10 3 -25 20 -32 37 -23 57 -110 86 -166 55
-12 -7 -39 -32 -61 -57 -27 -31 -74 -64 -146 -103 l-106 -57 -40 20 c-62 32
-165 28 -238 -9 -78 -39 -100 -90 -70 -157 11 -25 10 -29 -13 -46 -14 -11 -62
-34 -107 -52 -102 -41 -152 -76 -211 -145 -25 -30 -81 -93 -125 -140 -43 -47
-83 -96 -89 -109 -7 -16 -15 -21 -26 -15 -19 9 -114 8 -158 -2 -33 -7 -33 -7
-33 29 0 81 -47 131 -155 166 -24 8 -66 38 -105 75 -36 34 -75 67 -86 73 -17
9 -23 24 -27 69 -19 195 -45 280 -108 342 -32 32 -120 81 -146 81 -7 0 -13 11
-13 25 0 52 -27 82 -109 125 -51 27 -81 49 -84 62 -3 11 -3 57 0 102 10 146
-33 190 -197 200 -47 3 -100 10 -118 17 -33 11 -33 11 -14 33 33 36 42 63 42
128 0 99 -49 157 -132 158 -18 1 -48 9 -67 19 l-34 18 2 76 c3 89 -20 146 -72
177 -48 29 -169 28 -218 -3z"/>
<path d="M72 10521 c-19 -12 -42 -40 -52 -64 -19 -41 -20 -84 -20 -1497 l0
-1455 23 -39 c38 -68 70 -80 242 -88 211 -9 511 4 551 25 17 9 34 23 37 32 5
12 12 11 43 -10 21 -14 48 -28 60 -31 13 -3 110 -4 216 -2 193 3 193 3 248 33
94 52 94 53 100 390 l5 290 59 -265 c85 -383 88 -390 166 -430 85 -43 450 -47
530 -5 17 9 39 29 48 45 l18 28 16 -28 c9 -16 34 -37 55 -48 34 -18 68 -20
353 -25 294 -4 317 -3 352 14 20 10 44 29 52 41 l16 22 22 -21 c13 -11 33 -26
46 -32 34 -18 315 -32 416 -22 102 10 142 31 176 92 23 40 26 58 31 199 3 85
6 148 7 139 5 -44 94 -200 146 -256 63 -69 190 -141 286 -164 80 -18 290 -16
369 5 99 26 198 82 273 157 56 56 77 88 129 194 l63 127 13 -63 c7 -35 30
-100 52 -144 66 -139 172 -222 338 -266 104 -28 352 -30 458 -5 172 41 307
142 377 282 l35 71 5 -116 c6 -137 27 -198 80 -231 31 -19 50 -20 298 -20 247
0 267 1 298 20 18 11 41 34 51 50 l18 31 13 -32 c26 -62 52 -69 265 -69 215 0
258 11 294 71 l19 31 16 -31 c32 -61 62 -68 347 -74 232 -5 260 -4 296 13 22
10 44 23 48 30 5 8 11 7 24 -4 45 -41 81 -46 341 -46 231 0 254 2 290 20 22
11 46 33 55 50 12 24 54 236 90 458 4 23 10 42 14 42 4 0 18 -57 30 -127 31
-166 66 -304 91 -354 38 -73 50 -76 327 -84 238 -7 247 -7 290 14 29 14 49 32
60 56 17 35 16 49 -14 235 -5 33 -3 31 31 -25 52 -86 144 -167 251 -220 115
-57 202 -71 351 -56 114 12 191 34 294 86 l68 34 18 -20 c39 -43 63 -47 292
-55 254 -8 271 -5 304 59 33 66 22 108 -86 325 l-95 192 28 62 c30 65 104 289
118 355 5 24 10 -66 14 -252 7 -323 16 -381 73 -502 45 -94 104 -152 208 -204
120 -60 231 -81 438 -82 194 0 262 13 389 74 113 55 199 141 263 264 l47 90 1
-153 c0 -177 12 -215 74 -245 50 -23 487 -39 806 -28 266 9 286 14 320 81 19
38 20 52 14 307 -8 299 -10 310 -74 343 -35 18 -59 20 -245 20 l-205 0 0 208
c0 114 3 217 6 230 6 22 9 22 155 22 172 0 209 11 239 71 16 31 20 73 26 325
8 323 6 335 -59 374 -28 18 -51 20 -199 20 l-168 0 0 174 c0 95 3 194 6 220
l7 46 201 0 c302 0 293 -11 302 347 7 241 6 249 -15 290 -39 77 -21 74 -590
80 l-506 5 -37 -25 -38 -26 -37 22 c-36 21 -51 22 -279 25 -229 3 -244 2 -283
-17 -22 -12 -46 -31 -53 -44 -10 -17 -14 -259 -18 -1157 -4 -879 -9 -1144 -18
-1173 -7 -21 -17 -35 -22 -32 -27 17 -30 138 -30 1211 0 1077 0 1106 -20 1143
-33 65 -62 71 -338 71 -219 0 -239 -2 -270 -20 -18 -11 -41 -34 -52 -52 -19
-32 -20 -52 -20 -746 l0 -713 -32 17 c-28 14 -57 16 -205 12 l-173 -6 35 39
c19 21 51 71 72 111 l37 73 8 420 c5 231 6 448 2 481 -12 131 -94 247 -217
308 -117 57 -186 70 -392 70 -206 0 -271 -11 -385 -69 -89 -45 -139 -94 -181
-180 -32 -66 -33 -69 -41 -264 -5 -108 -7 -351 -6 -541 l3 -345 27 -52 c15
-28 33 -55 39 -58 7 -5 -10 -28 -44 -64 -69 -70 -112 -138 -139 -221 -20 -60
-22 -91 -27 -435 -4 -244 -9 -351 -14 -315 -4 30 -51 334 -103 675 -165 1081
-272 1685 -315 1786 -35 81 -45 84 -309 84 -269 0 -276 -2 -310 -92 -55 -146
-154 -673 -374 -1993 l-92 -555 -7 560 c-3 308 -13 873 -23 1255 -15 657 -17
698 -37 743 -34 82 -53 87 -326 87 -219 0 -233 -1 -277 -22 -35 -17 -52 -34
-69 -68 -12 -25 -66 -191 -118 -370 -129 -437 -185 -621 -189 -626 -3 -2 -44
126 -93 284 -135 440 -213 673 -237 716 -41 71 -51 73 -340 79 -237 4 -259 3
-287 -14 -53 -32 -66 -70 -67 -194 0 -60 -1 -137 -2 -170 l-2 -60 -24 66 c-68
193 -186 302 -386 356 -95 25 -381 25 -464 0 -95 -29 -191 -83 -243 -135 -58
-58 -119 -169 -149 -272 -12 -41 -25 -68 -28 -60 -35 97 -49 129 -82 187 -115
207 -334 314 -614 300 -245 -12 -415 -123 -529 -345 l-49 -96 -4 155 c-3 135
-7 159 -26 196 -39 75 -62 81 -338 89 -263 8 -284 4 -321 -52 -14 -22 -18 -23
-25 -10 -5 9 -28 26 -51 38 -41 22 -50 23 -352 23 l-310 0 -55 -27 c-47 -24
-56 -25 -70 -13 -43 39 -84 45 -302 45 -202 0 -215 -2 -252 -23 -75 -42 -80
-62 -86 -317 l-5 -225 -45 215 c-24 118 -54 233 -65 255 -13 25 -35 48 -61 62
-38 21 -58 23 -290 29 -240 7 -250 6 -290 -14 -26 -13 -46 -32 -54 -53 l-13
-31 -20 26 c-10 15 -36 35 -57 46 -33 17 -70 19 -361 25 -318 7 -325 6 -357
-14z m756 -1056 c-5 -352 -8 -863 -6 -1136 l3 -497 -27 14 c-14 7 -58 17 -97
20 l-71 7 0 941 c0 518 3 1012 7 1099 l6 157 66 0 c47 0 75 6 96 19 17 10 31
18 31 17 1 0 -3 -289 -8 -641z m1592 630 c15 -8 53 -14 93 -15 l67 0 0 -458
c0 -252 -3 -756 -7 -1120 l-6 -662 -69 0 c-42 0 -80 -6 -98 -15 l-30 -16 0
528 c0 692 12 1773 19 1773 3 -1 17 -7 31 -15z m8400 -377 c0 -208 -8 -258
-29 -197 -21 59 -8 399 16 399 10 0 13 -39 13 -202z m-6296 15 c3 -21 6 -95 6
-165 0 -224 16 -237 308 -245 184 -5 226 -2 285 22 16 7 17 -13 17 -335 0
-322 -1 -342 -17 -334 -10 5 -125 10 -255 12 -264 3 -281 0 -318 -61 -18 -28
-20 -51 -20 -203 0 -161 -12 -279 -30 -297 -4 -5 -15 23 -24 61 -14 61 -16
156 -16 669 0 329 5 643 10 698 12 118 30 215 40 215 4 0 10 -17 14 -37z
m6596 -809 c-6 -14 -10 -37 -10 -52 -1 -27 -1 -26 -19 8 l-19 35 27 17 c14 9
27 17 28 17 1 1 -2 -11 -7 -25z m-397 -759 l36 -80 -21 -22 c-29 -31 -48 -29
-48 5 0 16 -3 65 -6 108 -4 43 -4 77 -1 74 3 -3 21 -41 40 -85z"/>
<path d="M16147 10530 c-110 -13 -276 -55 -378 -95 l-86 -35 -356 0 c-255 0
-364 -3 -382 -12 -53 -24 -55 -36 -55 -430 l0 -363 -30 -74 c-76 -185 -106
-382 -97 -636 7 -190 30 -315 88 -465 l33 -85 6 -380 c3 -209 9 -388 14 -398
21 -44 45 -47 425 -47 l359 0 79 -31 c203 -82 459 -118 701 -100 161 13 248
31 392 83 l115 42 375 5 c206 4 383 10 393 15 44 21 47 44 47 428 l0 363 30
74 c68 167 100 347 100 566 0 222 -31 395 -101 573 l-29 73 0 360 c0 391 -2
403 -55 427 -18 9 -128 12 -384 12 -358 0 -359 0 -413 24 -75 33 -205 72 -308
91 -101 19 -373 27 -483 15z m-922 -2700 c3 -5 1 -10 -4 -10 -6 0 -11 5 -11
10 0 6 2 10 4 10 3 0 8 -4 11 -10z"/>
<path d="M63 7150 c-53 -32 -63 -63 -63 -205 0 -141 10 -174 60 -200 26 -13
354 -15 2904 -15 l2875 0 64 -35 c54 -30 73 -35 127 -35 44 0 82 -8 125 -24
47 -20 87 -26 180 -31 66 -4 144 -14 173 -22 51 -15 55 -19 87 -82 70 -139
165 -255 242 -294 41 -22 105 -22 146 -1 62 32 138 19 157 -27 24 -58 102 -75
180 -40 42 19 43 19 109 -4 96 -32 123 -48 193 -114 35 -32 78 -66 96 -75 18
-9 36 -25 39 -34 22 -70 57 -121 100 -152 102 -71 153 -140 153 -208 1 -73 62
-142 125 -142 30 0 81 24 87 41 3 9 10 9 28 -1 31 -17 116 -7 168 19 48 24
125 27 162 6 14 -8 44 -14 67 -15 23 0 45 -5 48 -10 13 -20 85 -50 122 -50 36
0 39 -3 62 -56 32 -73 89 -110 157 -100 39 5 49 2 68 -17 13 -13 31 -49 40
-80 21 -74 52 -108 127 -142 56 -25 70 -27 154 -23 86 4 98 7 186 51 52 26 99
47 106 47 6 0 35 -11 65 -25 97 -45 183 -24 216 55 16 37 19 39 72 42 30 2 62
1 71 -4 9 -4 75 -9 145 -10 126 -3 130 -2 177 25 62 37 85 31 57 -15 -22 -37
-27 -116 -9 -151 7 -11 11 -56 10 -98 -2 -83 13 -130 46 -144 21 -9 105 -24
179 -31 49 -5 114 14 114 34 0 4 4 13 9 20 7 11 15 11 46 -2 47 -20 98 -20
135 -1 27 14 33 14 62 -1 24 -12 49 -15 98 -12 129 10 220 87 220 188 0 20 6
44 13 54 13 17 15 17 45 2 40 -20 143 -21 182 -1 18 10 31 11 35 5 4 -6 24
-19 45 -30 57 -29 147 -27 210 5 59 30 80 65 80 134 l0 50 43 11 c78 21 146
59 168 92 16 27 19 43 14 88 -3 30 -5 60 -4 65 0 6 2 55 3 110 3 81 7 107 25
135 27 45 35 88 28 159 l-5 58 35 12 c19 7 57 33 86 58 28 25 71 55 95 65 41
18 46 19 83 4 22 -9 65 -16 97 -16 68 0 113 23 131 68 15 35 77 62 143 62 44
0 90 20 129 57 l26 24 63 -21 c53 -18 82 -21 203 -19 78 1 167 -1 198 -5 47
-7 62 -5 98 13 23 12 45 29 48 37 4 11 18 13 67 8 55 -6 68 -3 114 20 59 30
85 65 108 146 37 133 95 187 287 269 l132 56 301 3 c292 3 305 2 414 -23 84
-18 122 -32 147 -53 77 -61 96 -72 135 -72 74 0 113 37 120 115 l3 30 1130 5
c915 4 1134 8 1153 18 43 25 62 85 62 204 0 128 -15 170 -72 199 -36 19 -209
19 -8895 19 -8768 0 -8858 0 -8890 -20z m9462 -1458 c18 -21 50 -47 70 -58 19
-10 33 -23 31 -29 -3 -5 -15 -35 -27 -65 -13 -30 -24 -56 -25 -58 0 -1 -25 9
-55 23 -45 21 -68 25 -139 24 -47 0 -94 -4 -105 -8 -13 -6 -32 -2 -55 9 -19
10 -50 21 -68 25 l-33 7 25 19 c13 10 30 19 38 19 29 0 77 40 89 74 l13 36 86
0 c47 0 92 5 100 10 20 13 16 15 55 -28z"/>
</g>
</svg>
